…
## Make a PCA to separate female/males

``` r
library(DescTools)

samples_for_pca <- alle_idxs %>%
  rename(INDIVIDUALS = Sample_ID, STRATA = Sex, MARKERS = locus, GT = alleidx) %>%
  filter(!str_detect(INDIVIDUALS, "NTC")) # Remove NTCs at this point because they are missing nearly all markers.
  

samples_for_pca
```

    ## # A tibble: 408 × 6
    ##    INDIVIDUALS MARKERS      gene_copy allele   STRATA    GT
    ##    <chr>       <chr>            <int> <chr>    <chr>  <int>
    ##  1 10575       CLocus_1008          1 NCN      female     1
    ##  2 10575       CLocus_1008          2 NCN      female     1
    ##  3 10575       CLocus_18110         1 AC       female     1
    ##  4 10575       CLocus_18110         2 AC       female     1
    ##  5 10575       CLocus_31643         1 NCG      female     1
    ##  6 10575       CLocus_31643         2 NCG      female     1
    ##  7 10575       CLocus_33227         1 NGGATTTN female     1
    ##  8 10575       CLocus_33227         2 NGGATTTN female     1
    ##  9 10576       CLocus_1008          1 NCN      female     1
    ## 10 10576       CLocus_1008          2 NCN      female     1
    ## # ℹ 398 more rows
…
